[
  {
    "author": "Usagi",
    "info": "świetna galeria 1",
    "galleryId": "podgaleria-1",
    "date": "2016-02-17 09:30:33"
  },
  {
    "author": "Usagi",
    "info": "niezłe zdjęcia 1",
    "galleryId": "podgaleria-1",
    "date": "2016-02-17 09:41:45"
  }
]